module blogapp

go 1.17

require (
	github.com/Knetic/govaluate v3.0.1-0.20171022003610-9aa49832a739+incompatible // indirect
	github.com/casbin/casbin/v2 v2.42.0 // indirect
	github.com/casbin/gorm-adapter/v3 v3.5.0 // indirect
	github.com/davecgh/go-spew v1.1.1 // indirect
	github.com/denisenkom/go-mssqldb v0.12.0 // indirect
	github.com/dgrijalva/jwt-go v3.2.0+incompatible // indirect
	github.com/gin-contrib/sse v0.1.0 // indirect
	github.com/gin-gonic/gin v1.7.7 // indirect
	github.com/go-playground/locales v0.14.0 // indirect
	github.com/go-playground/universal-translator v0.18.0 // indirect
	github.com/go-playground/validator/v10 v10.10.1 // indirect
	github.com/go-sql-driver/mysql v1.6.0 // indirect
	github.com/golang-sql/civil v0.0.0-20220223132316-b832511892a9 // indirect
	github.com/golang-sql/sqlexp v0.0.0-20170517235910-f1bb20e5a188 // indirect
	github.com/golang/protobuf v1.5.2 // indirect
	github.com/google/uuid v1.3.0 // indirect
	github.com/jackc/chunkreader/v2 v2.0.1 // indirect
	github.com/jackc/pgconn v1.11.0 // indirect
	github.com/jackc/pgio v1.0.0 // indirect
	github.com/jackc/pgpassfile v1.0.0 // indirect
	github.com/jackc/pgproto3/v2 v2.2.0 // indirect
	github.com/jackc/pgservicefile v0.0.0-20200714003250-2b9c44734f2b // indirect
	github.com/jackc/pgtype v1.10.0 // indirect
	github.com/jackc/pgx/v4 v4.15.0 // indirect
	github.com/jinzhu/inflection v1.0.0 // indirect
	github.com/jinzhu/now v1.1.4 // indirect
	github.com/joho/godotenv v1.4.0 // indirect
	github.com/json-iterator/go v1.1.12 // indirect
	github.com/leodido/go-urn v1.2.1 // indirect
	github.com/lib/pq v1.10.4 // indirect
	github.com/mattn/go-isatty v0.0.14 // indirect
	github.com/modern-go/concurrent v0.0.0-20180306012644-bacd9c7ef1dd // indirect
	github.com/modern-go/reflect2 v1.0.2 // indirect
	github.com/pmezard/go-difflib v1.0.0 // indirect
	github.com/robfig/cron/v3 v3.0.0 // indirect
	github.com/stretchr/objx v0.3.0 // indirect
	github.com/stretchr/testify v1.7.1 // indirect
	github.com/ugorji/go/codec v1.2.7 // indirect
	github.com/vcraescu/go-paginator/v2 v2.0.0 // indirect
	golang.org/x/crypto v0.0.0-20220315160706-3147a52a75dd // indirect
	golang.org/x/sys v0.0.0-20220315194320-039c03cc5b86 // indirect
	golang.org/x/text v0.3.7 // indirect
	google.golang.org/protobuf v1.27.1 // indirect
	gopkg.in/yaml.v2 v2.4.0 // indirect
	gopkg.in/yaml.v3 v3.0.0-20210107192922-496545a6307b // indirect
	gorm.io/driver/mysql v1.3.2 // indirect
	gorm.io/driver/postgres v1.3.1 // indirect
	gorm.io/driver/sqlserver v1.3.1 // indirect
	gorm.io/gorm v1.23.2 // indirect
	gorm.io/plugin/dbresolver v1.1.0 // indirect
)
